TidyTuesday Measles Vaccination Data | bdcaf
…
Lots of unlabelled. Private don’t play much of a role.

cmeasles %>% group_by(state) %>% summarise(n=n(),enrolls = sum(enroll, na.rm=T)) %>% arrange(-n)

## # A tibble: 21 x 3
##    state            n enrolls
##    <chr>        <int>   <dbl>
##  1 California   14033 1216297
##  2 Illinois      7619 2653668
##  3 New York      3942       0
##  4 Ohio          2915  176867
##  5 Pennsylvania  1939  138722
##  6 Washington    1793       0
##  7 Minnesota     1590   93114
##  8 Colorado       966   51641
##  9 Arizona        887   61983
## 10 Texas          811       0
## # … with 11 more rows
…
